[ {'id': 1, 'title': 'Fish Tank', 'showtime': '1405990657', 'description': 'Stars a cool first time actress.'}
, {'id': 2, 'title': 'Let The Right One In', 'showtime': '1402990657', 'description': 'Best vampire movie ever.'}
, {'id': 3, 'title': 'Ong Bak', 'showtime': '1390990657', 'description': 'Tony Jaa is an unreal martial artist.'}
]